Feature Engineering A-Z - 23 Frequency Encoding
…
Attaching package: 'recipes'

The following object is masked from 'package:stats':

    step

library(extrasteps)
library(modeldata)
data("ames")

ames |>
  select(Sale_Price, MS_SubClass, MS_Zoning)

# A tibble: 2,930 × 3
   Sale_Price MS_SubClass                         MS_Zoning               
        <int> <fct>                               <fct>                   
 1     215000 One_Story_1946_and_Newer_All_Styles Residential_Low_Density 
 2     105000 One_Story_1946_and_Newer_All_Styles Residential_High_Density
 3     172000 One_Story_1946_and_Newer_All_Styles Residential_Low_Density 
 4     244000 One_Story_1946_and_Newer_All_Styles Residential_Low_Density 
 5     189900 Two_Story_1946_and_Newer            Residential_Low_Density 
 6     195500 Two_Story_1946_and_Newer            Residential_Low_Density 
 7     213500 One_Story_PUD_1946_and_Newer        Residential_Low_Density 
 8     191500 One_Story_PUD_1946_and_Newer        Residential_Low_Density 
 9     236500 One_Story_PUD_1946_and_Newer        Residential_Low_Density 
10     189000 Two_Story_1946_and_Newer            Residential_Low_Density 
# … with 2,920 more rows
…
dummy_rec |>
  bake(new_data = NULL, starts_with("MS_SubClass"), starts_with("MS_Zoning")) |>
  glimpse()

Rows: 2,930
Columns: 2
$ MS_SubClass <dbl> 0.36825939, 0.36825939, 0.36825939, 0.36825939, 0.19624573…
$ MS_Zoning   <dbl> 0.775767918, 0.009215017, 0.775767918, 0.775767918, 0.7757…

We can pull the frequencies for each level of each variable by using tidy().

dummy_rec |>
  tidy(1)

# A tibble: 283 × 4
   terms       level                                  frequency id              
   <chr>       <chr>                                      <dbl> <chr>           
 1 MS_SubClass One_Story_1946_and_Newer_All_Styles      0.368   encoding_freque…
 2 MS_SubClass One_Story_1945_and_Older                 0.0474  encoding_freque…
 3 MS_SubClass One_Story_with_Finished_Attic_All_Ages   0.00205 encoding_freque…
 4 MS_SubClass One_and_Half_Story_Unfinished_All_Ages   0.00614 encoding_freque…
 5 MS_SubClass One_and_Half_Story_Finished_All_Ages     0.0980  encoding_freque…
 6 MS_SubClass Two_Story_1946_and_Newer                 0.196   encoding_freque…
 7 MS_SubClass Two_Story_1945_and_Older                 0.0437  encoding_freque…
 8 MS_SubClass Two_and_Half_Story_All_Ages              0.00785 encoding_freque…
 9 MS_SubClass Split_or_Multilevel                      0.0403  encoding_freque…
10 MS_SubClass Split_Foyer                              0.0164  encoding_freque…
# … with 273 more rows
…
