Feature Engineering A-Z - 19 Unseen Levels
…
 [1] "9E" "AA" "AS" "B6" "DL" "EV" "FL" "HA" "MQ" "UA" "US" "VX" "WN"

Notice that the testing data includes the carrier "AS" and "HA" but the training data doesn’t know that. Let us see what would happen if we were to calculate dummy variables without doing any adjusting.

dummy_spec <- recipe(arr_delay ~ carrier, data = flights_train) |>
  step_dummy(carrier)

dummy_spec_prepped <- prep(dummy_spec)

bake(dummy_spec_prepped, new_data = flights_test)

Warning: There are new levels in a factor: AS, HA

# A tibble: 211 × 12
   arr_delay carrier_AA carrier_B6 carrier_DL carrier_EV carrier_F9 carrier_FL
       <dbl>      <dbl>      <dbl>      <dbl>      <dbl>      <dbl>      <dbl>
 1        12          0          0          0          0          0          0
 2         8          1          0          0          0          0          0
 3       -14          0          0          0          0          0          0
 4        -6          0          1          0          0          0          0
 5        -3          1          0          0          0          0          0
 6       -33          0          0          1          0          0          0
 7        -7          1          0          0          0          0          0
 8         5          0          1          0          0          0          0
 9        31          1          0          0          0          0          0
10       -10         NA         NA         NA         NA         NA         NA
# ℹ 201 more rows
# ℹ 5 more variables: carrier_MQ <dbl>, carrier_UA <dbl>, carrier_US <dbl>,
#   carrier_VX <dbl>, carrier_WN <dbl>

We get a warning, and if you look at the rows that were affected we see that it produces NAs. Let us now use the function step_novel() that implements the above-described method.

novel_spec <- recipe(arr_delay ~ carrier, data = flights_train) |>
  step_novel(carrier) |>
  step_dummy(carrier) 

novel_spec_prepped <- prep(novel_spec)

bake(novel_spec_prepped, new_data = flights_test)

# A tibble: 211 × 13
   arr_delay carrier_AA carrier_B6 carrier_DL carrier_EV carrier_F9 carrier_FL
       <dbl>      <dbl>      <dbl>      <dbl>      <dbl>      <dbl>      <dbl>
 1        12          0          0          0          0          0          0
 2         8          1          0          0          0          0          0
 3       -14          0          0          0          0          0          0
 4        -6          0          1          0          0          0          0
 5        -3          1          0          0          0          0          0
 6       -33          0          0          1          0          0          0
 7        -7          1          0          0          0          0          0
 8         5          0          1          0          0          0          0
 9        31          1          0          0          0          0          0
10       -10          0          0          0          0          0          0
# ℹ 201 more rows
# ℹ 6 more variables: carrier_MQ <dbl>, carrier_UA <dbl>, carrier_US <dbl>,
#   carrier_VX <dbl>, carrier_WN <dbl>, carrier_new <dbl>
…
