Feature Engineering A-Z - 20 Ordinal Encoding
…
    intersect, setdiff, setequal, union

Attaching package: 'recipes'

The following object is masked from 'package:stats':

    step

library(modeldata)
data("ames")

ames |>
  select(Lot_Shape, Land_Slope)

# A tibble: 2,930 × 2
   Lot_Shape          Land_Slope
   <fct>              <fct>     
 1 Slightly_Irregular Gtl       
 2 Regular            Gtl       
 3 Slightly_Irregular Gtl       
 4 Regular            Gtl       
 5 Slightly_Irregular Gtl       
 6 Slightly_Irregular Gtl       
 7 Regular            Gtl       
 8 Slightly_Irregular Gtl       
 9 Slightly_Irregular Gtl       
10 Regular            Gtl       
# ℹ 2,920 more rows
…
We will fix that by turning them into ordered factors.

ames <- ames |>
  mutate(across(.cols = c(Lot_Shape, Land_Slope), .fns = as.ordered))

to perform ordinal encoding we will use the step_ordinalscore() step. This defaults to giving each level values between 1 and n, much like step_integer().

ordinal_rec <- recipe(Sale_Price ~ ., data = ames) |>
  step_ordinalscore(Lot_Shape, Land_Slope) |>
  prep()

ordinal_rec |>
  bake(new_data = NULL, starts_with("Lot_Shape"), starts_with("Land_Slope"))

# A tibble: 2,930 × 2
   Lot_Shape Land_Slope
       <int>      <int>
 1         2          1
 2         1          1
 3         2          1
 4         1          1
 5         2          1
 6         2          1
 7         1          1
 8         2          1
 9         2          1
10         1          1
# ℹ 2,920 more rows
…
