Feature Engineering A-Z | Target Encoding – Feature Engineering A-Z
…
find a better data set

library(recipes)
library(embed)

data(ames, package = "modeldata")

rec_target <- recipe(Sale_Price ~ Neighborhood, data = ames) |>
  step_lencode_glm(Neighborhood, outcome = vars(Sale_Price)) |>
  prep()

rec_target |>
  bake(new_data = NULL)

# A tibble: 2,930 × 2
   Neighborhood Sale_Price
          <dbl>      <int>
 1      145097.     215000
 2      145097.     105000
 3      145097.     172000
 4      145097.     244000
 5      190647.     189900
 6      190647.     195500
 7      324229.     213500
 8      324229.     191500
 9      324229.     236500
10      190647.     189000
# ℹ 2,920 more rows

And we see that it works as intended, we can pull out the exact levels using the tidy() method

rec_target |>
  tidy(1)

# A tibble: 29 × 4
   level                value terms        id               
   <chr>                <dbl> <chr>        <chr>            
 1 North_Ames         145097. Neighborhood lencode_glm_Bp5vK
 2 College_Creek      201803. Neighborhood lencode_glm_Bp5vK
 3 Old_Town           123992. Neighborhood lencode_glm_Bp5vK
 4 Edwards            130843. Neighborhood lencode_glm_Bp5vK
 5 Somerset           229707. Neighborhood lencode_glm_Bp5vK
 6 Northridge_Heights 322018. Neighborhood lencode_glm_Bp5vK
 7 Gilbert            190647. Neighborhood lencode_glm_Bp5vK
 8 Sawyer             136751. Neighborhood lencode_glm_Bp5vK
 9 Northwest_Ames     188407. Neighborhood lencode_glm_Bp5vK
10 Sawyer_West        184070. Neighborhood lencode_glm_Bp5vK
# ℹ 19 more rows
…
