Feature Engineering A-Z | Range Scaling – Feature Engineering A-Z
…
Where Equation 8.3 now has \(R_{lower}\) to represent a user-defined lower bound, and \(R_{upper}\) representing the corresponding user-defined upper bound. I would recommend that you keep Equation 8.1 in mind when thinking about this method but also include a little footnote that doesn’t include all the little options.

One thing you should know is how this transformation is affected by outliers. Clipping essentially ignores the magnitude of how much an outlier is. There is no difference between a new value of 100 and 100000 to a variable that had a range of \([0, 90]\) on the training data set. This might be a problem, and it is up to you as the practitioner to decide. One option would be to turn off clipping, but it would violate the assumption that all future transformed observations will be within a specific range.

Below is the figure Figure 8.2 is an illustration of the effect of having a single high value. In this case, a single observation with the value `10000` moved the transformed distribution much tighter around zero. And all but removed the variance of the non-outliers.

# A tibble: 4,000 × 3
   name        value outlier   
   <chr>       <dbl> <chr>     
 1 Original    1.54  No outlier
 2 Transformed 0.249 No outlier
 3 Original    0.235 No outlier
 4 Transformed 0.144 No outlier
 5 Original    0.370 No outlier
 6 Transformed 0.155 No outlier
 7 Original    9.51  No outlier
 8 Transformed 0.894 No outlier
 9 Original    9.68  No outlier
10 Transformed 0.907 No outlier
# ℹ 3,990 more rows
…
library(recipes)#| 
library(modeldata)

Attaching package: 'modeldata'

The following object is masked from 'package:datasets':

    penguins

data("ames")

ames |>
  select(Sale_Price, Lot_Area, Wood_Deck_SF, Mas_Vnr_Area)

# A tibble: 2,930 × 4
   Sale_Price Lot_Area Wood_Deck_SF Mas_Vnr_Area
        <int>    <int>        <int>        <dbl>
 1     215000    31770          210          112
 2     105000    11622          140            0
 3     172000    14267          393          108
 4     244000    11160            0            0
 5     189900    13830          212            0
 6     195500     9978          360           20
 7     213500     4920            0            0
 8     191500     5005            0            0
 9     236500     5389          237            0
10     189000     7500          140            0
# ℹ 2,920 more rows

We will be using the step_range() step for this

range_rec <- recipe(Sale_Price ~ ., data = ames) |>
  step_range(all_numeric_predictors()) |>
  prep()

range_rec |>
  bake(new_data = NULL, Sale_Price, Lot_Area, Wood_Deck_SF, Mas_Vnr_Area)

# A tibble: 2,930 × 4
   Sale_Price Lot_Area Wood_Deck_SF Mas_Vnr_Area
        <int>    <dbl>        <dbl>        <dbl>
 1     215000   0.142        0.147        0.07  
 2     105000   0.0482       0.0983       0     
 3     172000   0.0606       0.276        0.0675
 4     244000   0.0461       0            0     
 5     189900   0.0586       0.149        0     
 6     195500   0.0406       0.253        0.0125
 7     213500   0.0169       0            0     
 8     191500   0.0173       0            0     
 9     236500   0.0191       0.166        0     
10     189000   0.0290       0.0983       0     
# ℹ 2,920 more rows

We can also pull out what the min and max values were for each variable using tidy()

range_rec |>
  tidy(1)

# A tibble: 33 × 4
   terms            min    max id         
   <chr>          <dbl>  <dbl> <chr>      
 1 Lot_Frontage       0    313 range_FGmgk
 2 Lot_Area        1300 215245 range_FGmgk
 3 Year_Built      1872   2010 range_FGmgk
 4 Year_Remod_Add  1950   2010 range_FGmgk
 5 Mas_Vnr_Area       0   1600 range_FGmgk
 6 BsmtFin_SF_1       0      7 range_FGmgk
 7 BsmtFin_SF_2       0   1526 range_FGmgk
 8 Bsmt_Unf_SF        0   2336 range_FGmgk
 9 Total_Bsmt_SF      0   6110 range_FGmgk
10 First_Flr_SF     334   5095 range_FGmgk
# ℹ 23 more rows

using the min and max arguments we can set different ranges

range_rec <- recipe(Sale_Price ~ ., data = ames) |>
  step_range(all_numeric_predictors(), min = -2, max = 2) |>
  prep()

range_rec |>
  bake(new_data = NULL, Sale_Price, Lot_Area, Wood_Deck_SF, Mas_Vnr_Area)

# A tibble: 2,930 × 4
   Sale_Price Lot_Area Wood_Deck_SF Mas_Vnr_Area
        <int>    <dbl>        <dbl>        <dbl>
 1     215000    -1.43       -1.41         -1.72
 2     105000    -1.81       -1.61         -2   
 3     172000    -1.76       -0.896        -1.73
 4     244000    -1.82       -2            -2   
 5     189900    -1.77       -1.40         -2   
 6     195500    -1.84       -0.989        -1.95
 7     213500    -1.93       -2            -2   
 8     191500    -1.93       -2            -2   
 9     236500    -1.92       -1.33         -2   
10     189000    -1.88       -1.61         -2   
# ℹ 2,920 more rows
…
