Feature Engineering A-Z - 7 Box-Cox
…
Isn’t a universal fix

7.2 R Examples

We will be using the ames data set for these examples.

library(recipes)
library(modeldata)
data("ames")

ames %>%
  select(Lot_Area, Wood_Deck_SF, Sale_Price)

# A tibble: 2,930 × 3
   Lot_Area Wood_Deck_SF Sale_Price
      <int>        <int>      <int>
 1    31770          210     215000
 2    11622          140     105000
 3    14267          393     172000
 4    11160            0     244000
 5    13830          212     189900
 6     9978          360     195500
 7     4920            0     213500
 8     5005            0     191500
 9     5389          237     236500
10     7500          140     189000
# … with 2,920 more rows

{recipes} provides a step to perform Box-Cox transformations.

boxcox_rec <- recipe(Sale_Price ~ Lot_Area, data = ames) %>%
  step_BoxCox(Lot_Area) %>%
  prep()

boxcox_rec %>%
  bake(new_data = NULL)

# A tibble: 2,930 × 2
   Lot_Area Sale_Price
      <dbl>      <int>
 1     21.8     215000
 2     18.2     105000
 3     18.9     172000
 4     18.1     244000
 5     18.8     189900
 6     17.7     195500
 7     15.5     213500
 8     15.5     191500
 9     15.8     236500
10     16.8     189000
# … with 2,920 more rows
…
