Feature Engineering A-Z - 16 Polynomial
…
arguably less interpretable than binning and splines

can produce a lot of variables

have a hard time modeling sudden changes in distributions

16.2 R Examples

We will be using the ames data set for these examples.

ames |>
  select(Lot_Area, Year_Built)

# A tibble: 2,930 × 2
   Lot_Area Year_Built
      <int>      <int>
 1    31770       1960
 2    11622       1961
 3    14267       1958
 4    11160       1968
 5    13830       1997
 6     9978       1998
 7     4920       2001
 8     5005       1992
 9     5389       1995
10     7500       1999
# ℹ 2,920 more rows
…
