Feature Engineering A-Z - 10 Normalization
…
library(recipes)

Attaching package: 'recipes'

The following object is masked from 'package:stats':

    step

library(modeldata)
data("ames")

ames |>
  select(Sale_Price, Lot_Area, Wood_Deck_SF, Mas_Vnr_Area)

# A tibble: 2,930 × 4
   Sale_Price Lot_Area Wood_Deck_SF Mas_Vnr_Area
        <int>    <int>        <int>        <dbl>
 1     215000    31770          210          112
 2     105000    11622          140            0
 3     172000    14267          393          108
 4     244000    11160            0            0
 5     189900    13830          212            0
 6     195500     9978          360           20
 7     213500     4920            0            0
 8     191500     5005            0            0
 9     236500     5389          237            0
10     189000     7500          140            0
# ℹ 2,920 more rows

{recipes} provides a step to perform scaling, centering, and normalization. They are called step_scale(), step_center() and step_normalize() respectively.

Below is an example using step_scale()

scale_rec <- recipe(Sale_Price ~ ., data = ames) |>
  step_scale(all_numeric_predictors()) |>
  prep()

scale_rec |>
  bake(new_data = NULL, Sale_Price, Lot_Area, Wood_Deck_SF, Mas_Vnr_Area)

# A tibble: 2,930 × 4
   Sale_Price Lot_Area Wood_Deck_SF Mas_Vnr_Area
        <int>    <dbl>        <dbl>        <dbl>
 1     215000    4.03          1.66        0.627
 2     105000    1.47          1.11        0    
 3     172000    1.81          3.11        0.605
 4     244000    1.42          0           0    
 5     189900    1.76          1.68        0    
 6     195500    1.27          2.85        0.112
 7     213500    0.624         0           0    
 8     191500    0.635         0           0    
 9     236500    0.684         1.88        0    
10     189000    0.952         1.11        0    
# ℹ 2,920 more rows

We can also pull out the value of the standard deviation for each variable that was affected using tidy()

scale_rec |>
  tidy(1)

# A tibble: 33 × 3
   terms            value id         
   <chr>            <dbl> <chr>      
 1 Lot_Frontage     33.5  scale_FGmgk
 2 Lot_Area       7880.   scale_FGmgk
 3 Year_Built       30.2  scale_FGmgk
 4 Year_Remod_Add   20.9  scale_FGmgk
 5 Mas_Vnr_Area    179.   scale_FGmgk
 6 BsmtFin_SF_1      2.23 scale_FGmgk
 7 BsmtFin_SF_2    169.   scale_FGmgk
 8 Bsmt_Unf_SF     440.   scale_FGmgk
 9 Total_Bsmt_SF   441.   scale_FGmgk
10 First_Flr_SF    392.   scale_FGmgk
# ℹ 23 more rows

We could also have used step_center() and step_scale() together in one recipe

center_scale_rec <- recipe(Sale_Price ~ ., data = ames) |>
  step_center(all_numeric_predictors()) |>
  step_scale(all_numeric_predictors()) |>
  prep()

center_scale_rec |>
  bake(new_data = NULL, Sale_Price, Lot_Area, Wood_Deck_SF, Mas_Vnr_Area)

# A tibble: 2,930 × 4
   Sale_Price Lot_Area Wood_Deck_SF Mas_Vnr_Area
        <int>    <dbl>        <dbl>        <dbl>
 1     215000   2.74          0.920       0.0610
 2     105000   0.187         0.366      -0.566 
 3     172000   0.523         2.37        0.0386
 4     244000   0.128        -0.742      -0.566 
 5     189900   0.467         0.936      -0.566 
 6     195500  -0.0216        2.11       -0.454 
 7     213500  -0.663        -0.742      -0.566 
 8     191500  -0.653        -0.742      -0.566 
 9     236500  -0.604         1.13       -0.566 
10     189000  -0.336         0.366      -0.566 
# ℹ 2,920 more rows
…
center_scale_rec |>
  tidy()

# A tibble: 2 × 6
  number operation type   trained skip  id          
   <int> <chr>     <chr>  <lgl>   <lgl> <chr>       
1      1 step      center TRUE    FALSE center_tSRk5
2      2 step      scale  TRUE    FALSE scale_kjP2v 

And we can pull out the means using tidy(1)

center_scale_rec |>
  tidy(1)

# A tibble: 33 × 3
   terms             value id          
   <chr>             <dbl> <chr>       
 1 Lot_Frontage      57.6  center_tSRk5
 2 Lot_Area       10148.   center_tSRk5
 3 Year_Built      1971.   center_tSRk5
 4 Year_Remod_Add  1984.   center_tSRk5
 5 Mas_Vnr_Area     101.   center_tSRk5
 6 BsmtFin_SF_1       4.18 center_tSRk5
 7 BsmtFin_SF_2      49.7  center_tSRk5
 8 Bsmt_Unf_SF      559.   center_tSRk5
 9 Total_Bsmt_SF   1051.   center_tSRk5
10 First_Flr_SF    1160.   center_tSRk5
# ℹ 23 more rows

and the standard deviation using tidy(2)

center_scale_rec |>
  tidy(2)

# A tibble: 33 × 3
   terms            value id         
   <chr>            <dbl> <chr>      
 1 Lot_Frontage     33.5  scale_kjP2v
 2 Lot_Area       7880.   scale_kjP2v
 3 Year_Built       30.2  scale_kjP2v
 4 Year_Remod_Add   20.9  scale_kjP2v
 5 Mas_Vnr_Area    179.   scale_kjP2v
 6 BsmtFin_SF_1      2.23 scale_kjP2v
 7 BsmtFin_SF_2    169.   scale_kjP2v
 8 Bsmt_Unf_SF     440.   scale_kjP2v
 9 Total_Bsmt_SF   441.   scale_kjP2v
10 First_Flr_SF    392.   scale_kjP2v
# ℹ 23 more rows

Since these steps often follow each other, we often use the step_normalize() as a shortcut to do both operations in one step

scale_rec <- recipe(Sale_Price ~ ., data = ames) |>
  step_normalize(all_numeric_predictors()) |>
  prep()

scale_rec |>
  bake(new_data = NULL, Sale_Price, Lot_Area, Wood_Deck_SF, Mas_Vnr_Area)

# A tibble: 2,930 × 4
   Sale_Price Lot_Area Wood_Deck_SF Mas_Vnr_Area
        <int>    <dbl>        <dbl>        <dbl>
 1     215000   2.74          0.920       0.0610
 2     105000   0.187         0.366      -0.566 
 3     172000   0.523         2.37        0.0386
 4     244000   0.128        -0.742      -0.566 
 5     189900   0.467         0.936      -0.566 
 6     195500  -0.0216        2.11       -0.454 
 7     213500  -0.663        -0.742      -0.566 
 8     191500  -0.653        -0.742      -0.566 
 9     236500  -0.604         1.13       -0.566 
10     189000  -0.336         0.366      -0.566 
# ℹ 2,920 more rows
…
