Feature Engineering A-Z - 6 Square Root
…
6.1.2 Cons

It will leave regression coefficients virtually uninterpretable

Is not a universal fix. While it can make skewed distributions less skewed. It has the opposite effect on a distribution that isn’t skewed

6.2 R Examples

We will be using the hotel_bookings data set for these examples.

hotel_bookings %>%
  select(lead_time, adr)

# A tibble: 119,390 × 2
   lead_time   adr
       <dbl> <dbl>
 1       342    0 
 2       737    0 
 3         7   75 
 4        13   75 
 5        14   98 
 6        14   98 
 7         0  107 
 8         9  103 
 9        85   82 
10        75  106.
# … with 119,380 more rows

{recipes} provides a step to perform logarithms, which out of the box uses \(e\) as the base with an offset of 0.

# TODO use signed sqrt
sqrt_rec <- recipe(lead_time ~ adr, data = hotel_bookings) %>%
  step_sqrt(adr)

sqrt_rec %>%
  prep() %>%
  bake(new_data = NULL)

Warning in sqrt(getElement(new_data, col_names[i])): NaNs produced

# A tibble: 119,390 × 2
     adr lead_time
   <dbl>     <dbl>
 1  0          342
 2  0          737
 3  8.66         7
 4  8.66        13
 5  9.90        14
 6  9.90        14
 7 10.3          0
 8 10.1          9
 9  9.06        85
10 10.3         75
# … with 119,380 more rows
…
