Feature Engineering A-Z - 4 Logarithms
…
4.2 R Examples

We will be using the ames data set for these examples.

ames %>%
  select(Lot_Area, Wood_Deck_SF, Sale_Price)

# A tibble: 2,930 × 3
   Lot_Area Wood_Deck_SF Sale_Price
      <int>        <int>      <int>
 1    31770          210     215000
 2    11622          140     105000
 3    14267          393     172000
 4    11160            0     244000
 5    13830          212     189900
 6     9978          360     195500
 7     4920            0     213500
 8     5005            0     191500
 9     5389          237     236500
10     7500          140     189000
# … with 2,920 more rows

{recipes} provides a step to perform logarithms, which out of the box uses \(e\) as the base with an offset of 0.

log_rec <- recipe(Sale_Price ~ Lot_Area, data = ames) %>%
  step_log(Lot_Area)

log_rec %>%
  prep() %>%
  bake(new_data = NULL)

# A tibble: 2,930 × 2
   Lot_Area Sale_Price
      <dbl>      <int>
 1    10.4      215000
 2     9.36     105000
 3     9.57     172000
 4     9.32     244000
 5     9.53     189900
 6     9.21     195500
 7     8.50     213500
 8     8.52     191500
 9     8.59     236500
10     8.92     189000
# … with 2,920 more rows

The base can be changed by setting the base argument.

log_rec <- recipe(Sale_Price ~ Lot_Area, data = ames) %>%
  step_log(Lot_Area, base = 2)

log_rec %>%
  prep() %>%
  bake(new_data = NULL)

# A tibble: 2,930 × 2
   Lot_Area Sale_Price
      <dbl>      <int>
 1     15.0     215000
 2     13.5     105000
 3     13.8     172000
 4     13.4     244000
 5     13.8     189900
 6     13.3     195500
 7     12.3     213500
 8     12.3     191500
 9     12.4     236500
10     12.9     189000
# … with 2,920 more rows

If we have non-positive values, which we do in the Wood_Deck_SF variable because it has quite a lot of zeroes, we get -Inf which isn’t going to work.

log_rec <- recipe(Sale_Price ~ Wood_Deck_SF, data = ames) %>%
  step_log(Wood_Deck_SF)

log_rec %>%
  prep() %>%
  bake(new_data = NULL)

# A tibble: 2,930 × 2
   Wood_Deck_SF Sale_Price
          <dbl>      <int>
 1         5.35     215000
 2         4.94     105000
 3         5.97     172000
 4      -Inf        244000
 5         5.36     189900
 6         5.89     195500
 7      -Inf        213500
 8      -Inf        191500
 9         5.47     236500
10         4.94     189000
# … with 2,920 more rows

Setting the offset argument helps us to deal with that problem.

log_rec <- recipe(Sale_Price ~ Wood_Deck_SF, data = ames) %>%
  step_log(Wood_Deck_SF, offset = 0.5)

log_rec %>%
  prep() %>%
  bake(new_data = NULL)

# A tibble: 2,930 × 2
   Wood_Deck_SF Sale_Price
          <dbl>      <int>
 1        5.35      215000
 2        4.95      105000
 3        5.98      172000
 4       -0.693     244000
 5        5.36      189900
 6        5.89      195500
 7       -0.693     213500
 8       -0.693     191500
 9        5.47      236500
10        4.95      189000
# … with 2,920 more rows
…
