Feature Engineering A-Z | Trigonometric – Feature Engineering A-Z
…
Doesn’t fit all periodic data shapes

Sensitive to should of period

63.3 R Examples

We will be using the animalshelter data set for this.

library(recipes)
library(animalshelter)

longbeach |>
  select(outcome_type, intake_date)

# A tibble: 29,787 × 2
   outcome_type intake_date
   <chr>        <date>     
 1 euthanasia   2023-02-20 
 2 rescue       2023-10-03 
 3 euthanasia   2020-01-01 
 4 transfer     2020-02-02 
 5 rescue       2018-12-18 
 6 adoption     2024-10-18 
 7 euthanasia   2020-07-25 
 8 rescue       2019-06-12 
 9 rescue       2017-09-21 
10 rescue       2024-12-15 
# ℹ 29,777 more rows

The step_harmonic() will calculate the

trig_rec <- recipe(outcome_type ~ intake_date, data = longbeach) |>
  step_harmonic(intake_date, 
                cycle_size = 365, 
                frequency = 1,
                starting_val = 0,
                keep_original_cols = TRUE)
trig_rec |>
  prep() |>
  bake(new_data = NULL)

# A tibble: 29,787 × 4
   intake_date outcome_type intake_date_sin_1 intake_date_cos_1
   <date>      <fct>                    <dbl>             <dbl>
 1 2023-02-20  euthanasia              0.884             0.467 
 2 2023-10-03  rescue                 -0.970             0.243 
 3 2020-01-01  euthanasia              0.205             0.979 
 4 2020-02-02  transfer                0.687             0.727 
 5 2018-12-18  rescue                 -0.0344            0.999 
 6 2024-10-18  adoption               -0.867             0.498 
 7 2020-07-25  euthanasia             -0.574            -0.819 
 8 2019-06-12  rescue                  0.146            -0.989 
 9 2017-09-21  rescue                 -1.000             0.0215
10 2024-12-15  rescue                 -0.0516            0.999 
# ℹ 29,777 more rows
…
